<?xml version="1.0" encoding="UTF-8" standalone="no"?> <svg width="64" height="64" viewBox="0 0 64 64" fill="none" xmlns="http://www.w3.org/2000/svg">
<path d="M60.0001 20.5003C60.3979 20.5003 60.7795 20.3422 61.0608 20.0609C61.3421 19.7796 61.5001 19.3981 61.5001 19.0003V13.0003C61.4996 12.2084 61.2906 11.4305 60.8941 10.745C60.4976 10.0595 59.9276 9.49053 59.2414 9.09523C58.5552 8.69993 57.777 8.49228 56.9851 8.49317C56.1931 8.49405 55.4154 8.70345 54.7301 9.10028L44.5001 15.0003V13.0003C44.4996 12.2084 44.2906 11.4305 43.8941 10.745C43.4976 10.0595 42.9276 9.49053 42.2414 9.09523C41.5552 8.69993 40.777 8.49228 39.9851 8.49317C39.1931 8.49405 38.4154 8.70345 37.7301 9.10028L4.73011 28.1003C4.04252 28.4955 3.47131 29.0651 3.07412 29.7516C2.67692 30.4381 2.46777 31.2172 2.46777 32.0103C2.46777 32.8034 2.67692 33.5825 3.07412 34.2689C3.47131 34.9554 4.04252 35.525 4.73011 35.9203L37.7301 54.9203C38.4169 55.318 39.1964 55.5274 39.9901 55.5274C40.7837 55.5274 41.5632 55.318 42.25 54.9204C42.9368 54.5227 43.5065 53.9508 43.9016 53.2625C44.2967 52.5742 44.5031 51.7939 44.5001 51.0003V49.0003L54.7301 54.9103C55.4162 55.3075 56.1948 55.517 56.9876 55.5174C57.7803 55.5179 58.5592 55.3093 59.2457 54.9128C59.9322 54.5164 60.502 53.9459 60.8978 53.259C61.2936 52.5721 61.5014 51.793 61.5001 51.0003V45.0003C61.5001 44.6025 61.3421 44.2209 61.0608 43.9396C60.7795 43.6583 60.3979 43.5003 60.0001 43.5003C56.9501 43.5003 54.025 42.2887 51.8684 40.132C49.7117 37.9753 48.5001 35.0503 48.5001 32.0003C48.5001 28.9503 49.7117 26.0252 51.8684 23.8686C54.025 21.7119 56.9501 20.5003 60.0001 20.5003V20.5003ZM41.5001 51.0003C41.4993 51.2654 41.4286 51.5257 41.2953 51.7549C41.1619 51.984 40.9706 52.1741 40.7405 52.3058C40.5104 52.4376 40.2497 52.5065 39.9846 52.5055C39.7194 52.5045 39.4592 52.4337 39.2301 52.3003L6.23011 33.3003C5.99948 33.1681 5.80784 32.9773 5.67456 32.7473C5.54129 32.5173 5.47111 32.2561 5.47111 31.9903C5.47111 31.7244 5.54129 31.4633 5.67456 31.2333C5.80784 31.0033 5.99948 30.8125 6.23011 30.6803L39.2301 11.6803C39.4607 11.546 39.7227 11.4751 39.9896 11.475C40.2564 11.4749 40.5186 11.5455 40.7492 11.6797C40.9799 11.8138 41.1709 12.0067 41.3028 12.2387C41.4347 12.4707 41.5028 12.7334 41.5001 13.0003V16.7003L21.7601 28.0903C21.0725 28.4855 20.5013 29.0551 20.1041 29.7416C19.7069 30.4281 19.4978 31.2072 19.4978 32.0003C19.4978 32.7934 19.7069 33.5725 20.1041 34.2589C20.5013 34.9454 21.0725 35.515 21.7601 35.9103L41.5001 47.3003V51.0003ZM45.5001 32.0003C45.5051 35.5846 46.8356 39.0404 49.2356 41.7025C51.6357 44.3647 54.9355 46.0451 58.5001 46.4203V51.0003C58.4993 51.2654 58.4286 51.5257 58.2953 51.7549C58.1619 51.984 57.9706 52.1741 57.7405 52.3058C57.5104 52.4376 57.2497 52.5065 56.9846 52.5055C56.7194 52.5045 56.4592 52.4337 56.2301 52.3003L23.2301 33.3003C22.9995 33.1681 22.8078 32.9773 22.6746 32.7473C22.5413 32.5173 22.4711 32.2561 22.4711 31.9903C22.4711 31.7244 22.5413 31.4633 22.6746 31.2333C22.8078 31.0033 22.9995 30.8125 23.2301 30.6803L56.2301 11.6803C56.4607 11.546 56.7227 11.4751 56.9896 11.475C57.2564 11.4749 57.5186 11.5455 57.7492 11.6797C57.9799 11.8138 58.1709 12.0067 58.3028 12.2387C58.4347 12.4707 58.5028 12.7334 58.5001 13.0003V17.6203C54.9423 17.9947 51.648 19.6694 49.249 22.3232C46.8499 24.9769 45.5149 28.4229 45.5001 32.0003V32.0003Z" fill="url(#paint0_linear_205_8818)"/>
<defs>
<linearGradient id="paint0_linear_205_8818" x1="2.50011" y1="32.0003" x2="61.5001" y2="32.0003" gradientUnits="userSpaceOnUse">
<stop stop-color="#0170FE"/>
<stop offset="0.38" stop-color="#035ED4"/>
<stop offset="0.79" stop-color="#044DAD"/>
<stop offset="1" stop-color="#05479E"/>
</linearGradient>
</defs>
</svg>
